{ 
  "type": "minecraft:crafting_shaped",
  "pattern": [
    " A ",
    "ABA",
    "   "
  ],
  "key": {
    "A": {
      "item":"icbmclassic:explosives",
      "data":15
    },
    "B": {
      "item":"icbmclassic:missile",
      "data":27
    }
  },
  "result": {
    "item":"icbmclassic:missile",
    "data":28
  }
}
