{ 
  "type": "minecraft:crafting_shaped",
  "pattern": [
  	" A ",
  	"BCB",
  	"BDB"
  ],
  "key": {
  	"A": {
      "item":"minecraft:compass",
      "data":0
  	},
  	"B": {
      "type":"forge:ore_dict",
      "ore":"ingotIron"
  	},
    "C": {
      "item":"minecraft:repeater",
      "data":0
    },
    "D": {
      "item":"immersiveengineering:material",
      "data":27
    }
  },
  "result": {
    "item": "icbmclassic:tracker",
    "data": 0
  }
}
