{ 
  "type": "minecraft:crafting_shaped",
  "pattern": [
  	"A  ",
  	" B ",
  	"  C"
  ],
  "key": {
  	"A": {
      "item":"icbmclassic:radargun",
      "data":0
  	},
    "B": {
      "item":"immersiveengineering:material",
      "data":27
    },
    "C": {
      "item":"icbmclassic:remotedetonator",
      "data":0
    }
  },
  "result": {
    "item": "icbmclassic:laserdetonator",
    "data": 0
  }
}
