{ 
  "type": "forge:ore_shaped",
  "pattern": [
  	"AAA",
    "ABA",
    "AAA"
  ],
  "key": {
    "A": {
      "type":"forge:ore_dict",
      "ore":"dustElectrotine"
    },
    "B": {
      "type":"forge:ore_dict",
      "ore":"ballSilicon"
    }
  },
  "result": {
    "item": "projectred-core:resource_item",
    "data": 312
  }
}
